@startuml
actor Player

rectangle "Init the game" {
    Player --> (Play offline)
    Player --> (Play online)
    Player --> (Load the game)
    (Load the game) ..> (Play the game) : <<includes>>
    (Play online) ..> (Play the game) : <<includes>>
    (Play offline) ..> (Play the game) : <<includes>>
}
newpage
actor Player

rectangle "Play the game" {
    Player --> (Start the game)
    Player --> (Pause the game)
    Player --> (Save the game)
    Player --> (Play its turn)
    (Play its turn) <.. (End the game) : <<extends>>
}
newpage
actor Player

rectangle "Play its turn" {
    Player --> (Select balls)
    Player --> (Choose direction)
    Player --> (Move balls)

}
newpage
actor Player

rectangle "Get high scores" {
    
}

@enduml